Gov 50 Final Project
…
Milestone 3: Data Visualization

Two scatter plots are shown below showing the distribution of one variable. The first scatter plot is of the Average SAT Scores by State, using data updated May 2023. The Scatter Plot ranks the states in the order of the lowest SAT Score to the highest SAT Score by State. The second scatter plot shows the percentage of the population that is 25 and over in each state that holds a Bachelor’s Degree. The states are also ranked in order from lowest percentage to greatest percentage of bachelor’s degree holders of the population 25 and over. The first plot uses data from the “World Population Review” and the second plot uses data from the “United States Census Bureau”.

setwd("/Users/charlottehodgson/Gov 50/gov50-final-project-Hodgson")
library(readr)
library(tidyverse)

sat_data <- read_csv("SAT_SCORES.csv")
degree_percent <- read_csv("DEGREE_PERCENTAGE.csv")
drop_na(degree_percent)

# A tibble: 52 × 2
   State                DegreePercent
   <chr>                        <dbl>
 1 Alabama                       17.5
 2 Alaska                        19.2
 3 Arizona                       20.4
 4 Arkansas                      15.7
 5 California                    22.5
 6 Colorado                      28.8
 7 Connecticut                   23  
 8 Delaware                      21  
 9 District of Columbia          26.4
10 Florida                       21.4
# ℹ 42 more rows
…
